[
  {
    "featureType": "landscape",
    "elementType": "geometry",
    "stylers": [
      {
        "color": "#777777"
      }
    ]
  },
  {
    "featureType": "poi.medical",
    "elementType": "geometry",
    "stylers": [
      {
        "color": "#f06969"
      }
    ]
  },
  {
    "featureType": "poi.park",
    "elementType": "geometry",
    "stylers": [
      {
        "color": "#69f0ae"
      }
    ]
  },
  {
    "featureType": "poi.school",
    "elementType": "geometry",
    "stylers": [
      {
        "color": "#7777777"
      }
    ]
  },
  {
    "featureType": "poi.sports_complex",
    "elementType": "geometry",
    "stylers": [
      {
        "color": "#69f0ae"
      }
    ]
  },
  {
    "featureType": "road",
    "elementType": "geometry",
    "stylers": [
      {
        "color": "#66666666"
      }
    ]
  },
  {
    "featureType": "water",
    "elementType": "geometry",
    "stylers": [
      {
        "color": "#69adf0"
      }
    ]
  }
]